// Jest Snapshot v1, https://goo.gl/fbAQLP

exports[`should render correctly with no props 1`] = `
<Row
  className="info-row"
  gutter={0}
>
  <Col
    className="label"
    span={8}
  />
  <Col
    span={16}
  />
</Row>
`;
